\relax 
\catcode `"\active 
\catcode `<\active 
\catcode `>\active 
\@nameuse{es@quoting}
\AC@reset@newl@bel
\providecommand\tcolorbox@label[2]{}
\babel@aux{spanish}{}
\@writefile{toc}{\contentsline {section}{\numberline {1}Base de datos}{2}}
\newlabel{LastPage}{{}{3}}
\xdef\lastpage@lastpage{3}
\gdef\lastpage@lastpageHy{}
